,skuid,retailer
0,BBA004_BLUEBONNT,TESTCrew
1,BBJ004_MZBLSNWHT,TESTCrew
2,BBJ005_REDWHITE,TESTCrew
3,BBJ104_CELDKDENCN,TESTCrew
4,BBK020_REDIVORY,TESTCrew
5,BBK021_BLUIVRYRED,TESTCrew
6,BBK022_AGRY,TESTCrew
7,BBK022_BGRY,TESTCrew
8,BBK022_CGRY,TESTCrew
9,BBK022_EGRY,TESTCrew
10,BBK022_GGRY,TESTCrew
11,BBK022_HGRY,TESTCrew
12,BBK022_JGRY,TESTCrew
13,BBK022_KGRY,TESTCrew
14,BBK022_LGRY,TESTCrew
15,BBK022_MGRY,TESTCrew
16,BBK022_NGRY,TESTCrew
17,BBK022_RGRY,TESTCrew
18,BBK022_SGRY,TESTCrew
19,BBQ003_NAVY,TESTCrew
20,BBQ004_ABLU,TESTCrew
21,BBQ004_BBLU,TESTCrew
22,BBQ004_CBLU,TESTCrew
23,BBQ004_EBLU,TESTCrew
24,BBQ004_GBLU,TESTCrew
25,BBQ004_HBLU,TESTCrew
26,BBQ004_JBLU,TESTCrew
27,BBQ004_KBLU,TESTCrew
28,BBQ004_LBLU,TESTCrew
29,BBQ004_MBLU,TESTCrew
30,BBQ004_NBLU,TESTCrew
31,BBQ004_RBLU,TESTCrew
32,BBQ004_SBLU,TESTCrew
33,BBR101_CROCODILE,TESTCrew
34,BBR101_NVYSTRP,TESTCrew
35,BBS017_RED,TESTCrew
36,BCK020_NVYIVRED,TESTCrew
37,BCK021_BLUCRM,TESTCrew
38,BCS003_RDNVYYLW,TESTCrew
39,MJC021_SKYBLUMRL,TESTCrew
40,MJC025_DAMSONNVY,TESTCrew
41,MLC007_PEAT,TESTCrew
42,MLC015_RUSSET,TESTCrew
43,MLC016_CHARCOLMRL,TESTCrew
44,MLC021_RUSSET,TESTCrew
45,MLC026_MIDGREYMRL,TESTCrew
46,MLC036_CHARCOLMRL,TESTCrew
47,MLC036_IVYGRNMRL,TESTCrew
48,MLC039_DKNAVY,TESTCrew
49,MLC042_BRCKRED,TESTCrew
50,MMC001_CRIMMRL,TESTCrew
51,MMC001_EMPPURMRL,TESTCrew
52,MMC001_IMPBLUMRL,TESTCrew
53,MMC002_EMPPURMRL,TESTCrew
54,MMC002_INKMRL,TESTCrew
55,MMC003_CASSISMRL,TESTCrew
56,MMC004_ORNGOCHR,TESTCrew
57,MMC006_DPPOOL,TESTCrew
58,MMC017_BLUMRL,TESTCrew
59,MMC017_DRKNAVY,TESTCrew
60,MMC018_YELLOW,TESTCrew
61,MMC023_BRGHTBLMRL,TESTCrew
62,MMC030_BRCBLTNVY,TESTCrew
63,MMC031_NVYMIDGREY,TESTCrew
64,MMC034_DRKNAVY,TESTCrew
65,MMC035_MIDGRYMRL,TESTCrew
66,MNC001_AMALMRL,TESTCrew
67,MNC002_CHAMMRL,TESTCrew
68,MNC002_LAQMRL,TESTCrew
69,MNC002_ROUX,TESTCrew
70,MNC005_LAQUER,TESTCrew
71,MNC015_INK,TESTCrew
72,MNC030_HRTNAVY,TESTCrew
73,MNC035_DKNAVY,TESTCrew
74,MNC035_PEAT,TESTCrew
75,MNC040_IVY,TESTCrew
76,MNC050_BLUEIND,TESTCrew
77,MNC055_MIST,TESTCrew
78,MNC069_ROUX,TESTCrew
79,MNC074_INDINK,TESTCrew
80,WJJ014_CHARWHTL,TESTCrew
81,WLG004_BLACKWHTE,TESTCrew
82,WLI007_MAUVE,TESTCrew
83,WLI014_CAMEO,TESTCrew
84,WLI014_MIDNIGHT,TESTCrew
85,WLI014_SCARLETT,TESTCrew
86,WLJ012_BLACKDOT,TESTCrew
87,WLJ012_GREENDOT,TESTCrew
88,WLJ019_BLUEYELLW,TESTCrew
89,WLJ022_BLUFLORAL,TESTCrew
90,WLJ050_MULTIFLRL,TESTCrew
91,WLJ056_BLACKPRNT,TESTCrew
92,WLJ056_NAVYPRINT,TESTCrew
93,WLJ065_IVYGREY,TESTCrew
94,WLJ070_NAVY,TESTCrew
95,WMD108_DKNAVY,TESTCrew
96,WMI007_RINSEWASH,TESTCrew
97,WMI007_WHITELINEN,TESTCrew
98,WMI008_BROWN,TESTCrew
99,WMI008_RED,TESTCrew
100,WMI008_STRNGBLU,TESTCrew
101,WMI010_NAVYPRNT,TESTCrew
102,WMI010_NAVYSPOT,TESTCrew
103,WMI012_GREEN,TESTCrew
104,WMI013_INDISTRPE,TESTCrew
105,WMI017_MULTI,TESTCrew
106,WMI019_WHITE,TESTCrew
107,WMI024_FLRASTRIP,TESTCrew
108,WMJ001_BLACK,TESTCrew
109,WMJ001_NAVY,TESTCrew
110,WMJ001_RED,TESTCrew
111,WMJ012_BLUEPRNT,TESTCrew
112,WMJ012_PINK,TESTCrew
113,WMJ024_GREEN,TESTCrew
114,WMJ024_ULTRAMARN,TESTCrew
115,WMJ027_BLOOMBLU,TESTCrew
116,WMJ027_BLOOMGRN,TESTCrew
117,WMJ027_BLOOMYEL,TESTCrew
118,WMJ027_BLUE,TESTCrew
119,WMJ027_CAYENNE,TESTCrew
120,WMJ027_NVYAMBER,TESTCrew
121,WMJ027_NVYSTRBLU,TESTCrew
122,WMJ027_RED,TESTCrew
123,WMJ027_SPTNVYBLU,TESTCrew
124,WMJ028_AMBRSTRPE,TESTCrew
125,WMJ031_GREENPRNT,TESTCrew
126,WMJ032_PINK,TESTCrew
127,WMJ037_NAVY,TESTCrew
128,WMJ038_PINK,TESTCrew
129,WMJ038_ULTRAMARN,TESTCrew
130,WMJ038_WEEDBLU,TESTCrew
131,WMJ039_YELWBLOOM,TESTCrew
132,WMJ042_BLUGRNWHT,TESTCrew
133,WMJ042_NVYWHT,TESTCrew
134,WMJ050_STRIPE,TESTCrew
135,WMJ057_FLORALPRNT,TESTCrew
136,WMJ081_STRIPE,TESTCrew
137,WMJ085_CREW,TESTCrew
138,WMJ090_GARDNPRNT,TESTCrew
139,WMJ090_NAVY,TESTCrew
140,WMJ100_PARROT,TESTCrew
141,WMJ100_SCRBFLORL,TESTCrew
142,WNI002_MULTISTP,TESTCrew
143,WNI011_NAVY,TESTCrew
144,WNI011_RED,TESTCrew
145,WNI014_NAVYSTRIPE,TESTCrew
146,WNI029_ANIMALPRNT,TESTCrew
147,WNI030_DRKINGO,TESTCrew
148,WNJ008_STRIPE,TESTCrew
149,WNJ036_NAVYWHITE,TESTCrew
150,WNJ050_PAINTNAVY,TESTCrew
151,WNJ053_FLSPOTNVY,TESTCrew
152,WNJ055_NAVYFLORAL,TESTCrew
153,WNJ056_NAVYFLORAL,TESTCrew
154,WNJ057_ANIMALPRNT,TESTCrew
155,WNJ057_SPOTPRINT,TESTCrew
156,WNJ060_GREY,TESTCrew
157,WNJ060_NAVY,TESTCrew
158,WNJ061_HEARTPRINT,TESTCrew
159,WNJ102_GREYSILVER,TESTCrew
160,WNJ120_HERTNVYMUL,TESTCrew
161,WOJ005_NIGHTSPOT,TESTCrew
162,WOJ006_CHALKGREY,TESTCrew
163,WOJ501_LTINDIGO,TESTCrew
164,WOJ504_GREENSPT,TESTCrew
165,WOJ536_NAVYFLRL,TESTCrew
166,WOJ537_NAVYRED,TESTCrew
167,WOJ538_NAVYSPOT,TESTCrew
