﻿module,run_interval,reset_interval,days,priority,start_time,run_time
AllSaints,2,10,"['mon',  'tue',  'wed',  'thu',  'fri',  'sat',  'sun' ]",1,00:00,14
Asos,2,10,"['mon',  'tue',  'wed',  'thu',  'fri',  'sat',  'sun' ]",4,00:00,24
Bershka,2,10,"['mon',  'tue',  'wed',  'thu',  'fri',  'sat',  'sun' ]",3,00:00,13
Blacks,2,10,"['mon',  'tue',  'wed',  'thu',  'fri',  'sat',  'sun' ]",2,00:00,10
Boden,1,10,"['mon',  'tue',  'wed',  'thu',  'fri',  'sat',  'sun' ]",1,00:00,6
CotswoldOutdoor,2,10,"['mon',  'tue',  'wed',  'thu',  'fri',  'sat',  'sun' ]",2,00:00,21
Crew,1,10,"['mon',  'tue',  'wed',  'thu',  'fri',  'sat',  'sun' ]",1,00:00,6
FatFace,1,10,"['mon',  'tue',  'wed',  'thu',  'fri',  'sat',  'sun' ]",1,00:00,4
GoOutdoors,2,10,"['mon',  'tue',  'wed',  'thu',  'fri',  'sat',  'sun' ]",2,00:00,8
HandMFR,2,10,"['mon',  'tue',  'wed',  'thu',  'fri',  'sat',  'sun' ]",3,00:00,10
HandMGB,2,10,"['mon',  'tue',  'wed',  'thu',  'fri',  'sat',  'sun' ]",1,00:00,10
JackWills,1,10,"['mon',  'tue',  'wed',  'thu',  'fri',  'sat',  'sun' ]",1,00:00,3
JohnLewis,2,10,"['mon',  'tue',  'wed',  'thu',  'fri',  'sat',  'sun' ]",4,00:00,18
Joules,1,10,"['mon',  'tue',  'wed',  'thu',  'fri',  'sat',  'sun' ]",1,00:00,18
MangoFR,2,10,"['mon',  'tue',  'wed',  'thu',  'fri',  'sat',  'sun' ]",3,00:00,12
MangoGB,2,10,"['mon',  'tue',  'wed',  'thu',  'fri',  'sat',  'sun' ]",1,00:00,8
Millets,2,10,"['mon',  'tue',  'wed',  'thu',  'fri',  'sat',  'sun' ]",2,00:00,13
MountainWarehouse,2,10,"['mon',  'tue',  'wed',  'thu',  'fri',  'sat',  'sun' ]",2,00:00,39
NewLook,2,10,"['mon',  'tue',  'wed',  'thu',  'fri',  'sat',  'sun' ]",5,00:00,22
Pimkie,2,10,"['mon',  'tue',  'wed',  'thu',  'fri',  'sat',  'sun' ]",3,00:00,3
PullandBear,2,10,"['mon',  'tue',  'wed',  'thu',  'fri',  'sat',  'sun' ]",3,00:00,16
Stradivarius,2,10,"['mon',  'tue',  'wed',  'thu',  'fri',  'sat',  'sun' ]",3,00:00,10
Superdry,2,10,"['mon',  'tue',  'wed',  'thu',  'fri',  'sat',  'sun' ]",4,00:00,16
Trespass,2,10,"['mon',  'tue',  'wed',  'thu',  'fri',  'sat',  'sun' ]",2,00:00,6
WhiteStuff,1,10,"['mon',  'tue',  'wed',  'thu',  'fri',  'sat',  'sun' ]",1,00:00,8
ZaraFR,2,10,"['mon',  'tue',  'wed',  'thu',  'fri',  'sat',  'sun' ]",3,00:00,12
ZaraGB,2,10,"['mon',  'tue',  'wed',  'thu',  'fri',  'sat',  'sun' ]",1,00:00,12
weather_London,1,10,"['mon',  'tue',  'wed',  'thu',  'fri',  'sat',  'sun' ]",1,00:00,3
weather_Manchester,1,10,"['mon',  'tue',  'wed',  'thu',  'fri',  'sat',  'sun' ]",1,00:00,3
weather_London_pws,1,10,"['mon',  'tue',  'wed',  'thu',  'fri',  'sat',  'sun' ]",1,00:00,3
weather_Manchester_pws,1,10,"['mon',  'tue',  'wed',  'thu',  'fri',  'sat',  'sun' ]",1,00:00,3
